{
  "Guid": "00b95226-1989-4f96-bb0c-a024861eb3ca",
  "Query": "select \r\n[UserName] adUuid,\r\n[Description] distinguishedName,\r\n[UserName] userName,\r\n[FirstName] firstName,\r\n[LastName] lastName,\r\n[DomainName] domainName,\r\n[Email] emailAddress,\r\n[Phone] phoneNumber,\r\n[Designation] designation,\r\n[Manager] managerName,\r\n[Street]\n   + (case when (([Street] is not null and [Street] != '')) and ([City] is not null and [City] != '') then ', ' else '' end)\n   + (case when (([City] is not null and [City] != '')) then [City] else '' end)\n   + (case when (([Street] is not null and [Street] != '') or ([City] is not null and [City] != '')) and (([State] is not null and [State] != '') or ([Zip] is not null and [Zip] != '')) then ', ' else '' end)\n   + (case when (([State] is not null and [State] != '')) then [State] else '' end)\n   + (case when (([Zip] is not null and [Zip] != '')) then ' ' + [Zip] else '' end)\n   + (case when (([Street] is not null and [Street] != '') or ([City] is not null and [City] != '') or ([State] is not null and [Zip] != '') or ([City] is not null and [Zip] != '')) and ([Country] is not null and [Country] != '') then ', ' else '' end)\n   + (case when (([Country] is not null and [Country] != '')) then [Country] else '' end) \r\n   as [address],\r\n[Mobile] mobile,\r\n[Department]department,\r\nCONVERT(DATETIME, null) adLastLogon,\r\nCONVERT(DATETIME, null) adWhenCreated,\r\nCONVERT(DATETIME, null) adWhenChanged,\r\nCONVERT(nvarchar, null) groupIds\r\n\r\nfrom [DIAGWIN_V_USERINFO_LOGIN_MST] where [IsActive] = 1",
  "Fields": [
    {
      "Guid": "4c293b9b-3702-46f1-b19d-a58a2646c6ce",
      "IsEnabled": true,
      "IsCacheObject": false,
      "SourceName": "adUuid",
      "SourceType": "System.String, mscorlib, Version=4.0.0.0, Culture=neutral, PublicKeyToken=b77a5c561934e089",
      "TargetName": "adUuid",
      "TargetType": "System.String, mscorlib, Version=4.0.0.0, Culture=neutral, PublicKeyToken=b77a5c561934e089",
      "TransformType": 5,
      "ReplaceRecords": [],
      "ReplaceTransformObject": {
        "ModuleGuid": "00000000-0000-0000-0000-000000000000",
        "FieldGuid": "00000000-0000-0000-0000-000000000000"
      },
      "SplitTransformIndex": 0,
      "SplitTransformSeparator": "",
      "SplitSetNullIfNotFoundSeparator": false
    },
    {
      "Guid": "09fd0342-2bff-4122-bb83-8fe4dd12bec4",
      "IsEnabled": true,
      "IsCacheObject": false,
      "SourceName": "distinguishedName",
      "SourceType": "System.String, mscorlib, Version=4.0.0.0, Culture=neutral, PublicKeyToken=b77a5c561934e089",
      "TargetName": "distinguishedName",
      "TargetType": "System.String, mscorlib, Version=4.0.0.0, Culture=neutral, PublicKeyToken=b77a5c561934e089",
      "TransformType": 0,
      "ReplaceRecords": [],
      "ReplaceTransformObject": {
        "ModuleGuid": "00000000-0000-0000-0000-000000000000",
        "FieldGuid": "00000000-0000-0000-0000-000000000000"
      },
      "SplitTransformIndex": 0,
      "SplitTransformSeparator": "",
      "SplitSetNullIfNotFoundSeparator": false
    },
    {
      "Guid": "452ea243-46c1-4d63-8b9a-6db38df72d9d",
      "IsEnabled": true,
      "IsCacheObject": false,
      "SourceName": "userName",
      "SourceType": "System.String, mscorlib, Version=4.0.0.0, Culture=neutral, PublicKeyToken=b77a5c561934e089",
      "TargetName": "userName",
      "TargetType": "System.String, mscorlib, Version=4.0.0.0, Culture=neutral, PublicKeyToken=b77a5c561934e089",
      "TransformType": 0,
      "ReplaceRecords": [],
      "ReplaceTransformObject": {
        "ModuleGuid": "00000000-0000-0000-0000-000000000000",
        "FieldGuid": "00000000-0000-0000-0000-000000000000"
      },
      "SplitTransformIndex": 0,
      "SplitTransformSeparator": "",
      "SplitSetNullIfNotFoundSeparator": false
    },
    {
      "Guid": "d14073f7-238d-4817-93a1-a466324d078a",
      "IsEnabled": true,
      "IsCacheObject": false,
      "SourceName": "firstName",
      "SourceType": "System.String, mscorlib, Version=4.0.0.0, Culture=neutral, PublicKeyToken=b77a5c561934e089",
      "TargetName": "firstName",
      "TargetType": "System.String, mscorlib, Version=4.0.0.0, Culture=neutral, PublicKeyToken=b77a5c561934e089",
      "TransformType": 0,
      "ReplaceRecords": [],
      "ReplaceTransformObject": {
        "ModuleGuid": "00000000-0000-0000-0000-000000000000",
        "FieldGuid": "00000000-0000-0000-0000-000000000000"
      },
      "SplitTransformIndex": 0,
      "SplitTransformSeparator": "",
      "SplitSetNullIfNotFoundSeparator": false
    },
    {
      "Guid": "a67bad34-2a94-4239-8be5-257b4ec17d08",
      "IsEnabled": true,
      "IsCacheObject": false,
      "SourceName": "lastName",
      "SourceType": "System.String, mscorlib, Version=4.0.0.0, Culture=neutral, PublicKeyToken=b77a5c561934e089",
      "TargetName": "lastName",
      "TargetType": "System.String, mscorlib, Version=4.0.0.0, Culture=neutral, PublicKeyToken=b77a5c561934e089",
      "TransformType": 0,
      "ReplaceRecords": [],
      "ReplaceTransformObject": {
        "ModuleGuid": "00000000-0000-0000-0000-000000000000",
        "FieldGuid": "00000000-0000-0000-0000-000000000000"
      },
      "SplitTransformIndex": 0,
      "SplitTransformSeparator": "",
      "SplitSetNullIfNotFoundSeparator": false
    },
    {
      "Guid": "91ad0a27-01a5-4695-b77f-17845f84adcc",
      "IsEnabled": true,
      "IsCacheObject": false,
      "SourceName": "domainName",
      "SourceType": "System.String, mscorlib, Version=4.0.0.0, Culture=neutral, PublicKeyToken=b77a5c561934e089",
      "TargetName": "domainName",
      "TargetType": "System.String, mscorlib, Version=4.0.0.0, Culture=neutral, PublicKeyToken=b77a5c561934e089",
      "TransformType": 0,
      "ReplaceRecords": [],
      "ReplaceTransformObject": {
        "ModuleGuid": "00000000-0000-0000-0000-000000000000",
        "FieldGuid": "00000000-0000-0000-0000-000000000000"
      },
      "SplitTransformIndex": 0,
      "SplitTransformSeparator": "",
      "SplitSetNullIfNotFoundSeparator": false
    },
    {
      "Guid": "f0702cb3-55d4-41dd-afaf-4d2534e08493",
      "IsEnabled": true,
      "IsCacheObject": false,
      "SourceName": "emailAddress",
      "SourceType": "System.String, mscorlib, Version=4.0.0.0, Culture=neutral, PublicKeyToken=b77a5c561934e089",
      "TargetName": "emailAddress",
      "TargetType": "System.String, mscorlib, Version=4.0.0.0, Culture=neutral, PublicKeyToken=b77a5c561934e089",
      "TransformType": 0,
      "ReplaceRecords": [],
      "ReplaceTransformObject": {
        "ModuleGuid": "00000000-0000-0000-0000-000000000000",
        "FieldGuid": "00000000-0000-0000-0000-000000000000"
      },
      "SplitTransformIndex": 0,
      "SplitTransformSeparator": "",
      "SplitSetNullIfNotFoundSeparator": false
    },
    {
      "Guid": "18853faa-460f-409e-8723-5b845e103eac",
      "IsEnabled": true,
      "IsCacheObject": false,
      "SourceName": "phoneNumber",
      "SourceType": "System.String, mscorlib, Version=4.0.0.0, Culture=neutral, PublicKeyToken=b77a5c561934e089",
      "TargetName": "phoneNumber",
      "TargetType": "System.String, mscorlib, Version=4.0.0.0, Culture=neutral, PublicKeyToken=b77a5c561934e089",
      "TransformType": 0,
      "ReplaceRecords": [],
      "ReplaceTransformObject": {
        "ModuleGuid": "00000000-0000-0000-0000-000000000000",
        "FieldGuid": "00000000-0000-0000-0000-000000000000"
      },
      "SplitTransformIndex": 0,
      "SplitTransformSeparator": "",
      "SplitSetNullIfNotFoundSeparator": false
    },
    {
      "Guid": "f72bd131-366f-47d5-b9cd-d8fabfaaddfa",
      "IsEnabled": true,
      "IsCacheObject": false,
      "SourceName": "designation",
      "SourceType": "System.String, mscorlib, Version=4.0.0.0, Culture=neutral, PublicKeyToken=b77a5c561934e089",
      "TargetName": "designation",
      "TargetType": "System.String, mscorlib, Version=4.0.0.0, Culture=neutral, PublicKeyToken=b77a5c561934e089",
      "TransformType": 0,
      "ReplaceRecords": [],
      "ReplaceTransformObject": {
        "ModuleGuid": "00000000-0000-0000-0000-000000000000",
        "FieldGuid": "00000000-0000-0000-0000-000000000000"
      },
      "SplitTransformIndex": 0,
      "SplitTransformSeparator": "",
      "SplitSetNullIfNotFoundSeparator": false
    },
    {
      "Guid": "df66dc87-dcdc-42fa-aa41-08c71bb95ffe",
      "IsEnabled": true,
      "IsCacheObject": false,
      "SourceName": "managerName",
      "SourceType": "System.String, mscorlib, Version=4.0.0.0, Culture=neutral, PublicKeyToken=b77a5c561934e089",
      "TargetName": "managerName",
      "TargetType": "System.String, mscorlib, Version=4.0.0.0, Culture=neutral, PublicKeyToken=b77a5c561934e089",
      "TransformType": 0,
      "ReplaceRecords": [],
      "ReplaceTransformObject": {
        "ModuleGuid": "00000000-0000-0000-0000-000000000000",
        "FieldGuid": "00000000-0000-0000-0000-000000000000"
      },
      "SplitTransformIndex": 0,
      "SplitTransformSeparator": "",
      "SplitSetNullIfNotFoundSeparator": false
    },
    {
      "Guid": "f14a18a4-bb07-481d-ba0e-864dac201574",
      "IsEnabled": true,
      "IsCacheObject": false,
      "SourceName": "address",
      "SourceType": "System.String, mscorlib, Version=4.0.0.0, Culture=neutral, PublicKeyToken=b77a5c561934e089",
      "TargetName": "address",
      "TargetType": "System.String, mscorlib, Version=4.0.0.0, Culture=neutral, PublicKeyToken=b77a5c561934e089",
      "TransformType": 0,
      "ReplaceRecords": [],
      "ReplaceTransformObject": {
        "ModuleGuid": "00000000-0000-0000-0000-000000000000",
        "FieldGuid": "00000000-0000-0000-0000-000000000000"
      },
      "SplitTransformIndex": 0,
      "SplitTransformSeparator": "",
      "SplitSetNullIfNotFoundSeparator": false
    },
    {
      "Guid": "f8c7f312-4a0d-486b-ac8e-13b3ec5c2f92",
      "IsEnabled": true,
      "IsCacheObject": false,
      "SourceName": "mobile",
      "SourceType": "System.String, mscorlib, Version=4.0.0.0, Culture=neutral, PublicKeyToken=b77a5c561934e089",
      "TargetName": "mobile",
      "TargetType": "System.String, mscorlib, Version=4.0.0.0, Culture=neutral, PublicKeyToken=b77a5c561934e089",
      "TransformType": 0,
      "ReplaceRecords": [],
      "ReplaceTransformObject": {
        "ModuleGuid": "00000000-0000-0000-0000-000000000000",
        "FieldGuid": "00000000-0000-0000-0000-000000000000"
      },
      "SplitTransformIndex": 0,
      "SplitTransformSeparator": "",
      "SplitSetNullIfNotFoundSeparator": false
    },
    {
      "Guid": "91bf871d-d706-48b5-ad7b-22620b699137",
      "IsEnabled": true,
      "IsCacheObject": false,
      "SourceName": "department",
      "SourceType": "System.String, mscorlib, Version=4.0.0.0, Culture=neutral, PublicKeyToken=b77a5c561934e089",
      "TargetName": "department",
      "TargetType": "System.String, mscorlib, Version=4.0.0.0, Culture=neutral, PublicKeyToken=b77a5c561934e089",
      "TransformType": 0,
      "ReplaceRecords": [],
      "ReplaceTransformObject": {
        "ModuleGuid": "00000000-0000-0000-0000-000000000000",
        "FieldGuid": "00000000-0000-0000-0000-000000000000"
      },
      "SplitTransformIndex": 0,
      "SplitTransformSeparator": "",
      "SplitSetNullIfNotFoundSeparator": false
    },
    {
      "Guid": "a5cd35b4-9246-4a8e-a61d-c11d1c7fb09e",
      "IsEnabled": true,
      "IsCacheObject": false,
      "SourceName": "adLastLogon",
      "SourceType": "System.DateTime, mscorlib, Version=4.0.0.0, Culture=neutral, PublicKeyToken=b77a5c561934e089",
      "TargetName": "adLastLogon",
      "TargetType": "System.DateTime, mscorlib, Version=4.0.0.0, Culture=neutral, PublicKeyToken=b77a5c561934e089",
      "TransformType": 0,
      "ReplaceRecords": [],
      "ReplaceTransformObject": {
        "ModuleGuid": "00000000-0000-0000-0000-000000000000",
        "FieldGuid": "00000000-0000-0000-0000-000000000000"
      },
      "SplitTransformIndex": 0,
      "SplitTransformSeparator": "",
      "SplitSetNullIfNotFoundSeparator": false
    },
    {
      "Guid": "e4b6d711-10ec-4548-b7d1-07882507d5c3",
      "IsEnabled": true,
      "IsCacheObject": false,
      "SourceName": "adWhenCreated",
      "SourceType": "System.DateTime, mscorlib, Version=4.0.0.0, Culture=neutral, PublicKeyToken=b77a5c561934e089",
      "TargetName": "adWhenCreated",
      "TargetType": "System.DateTime, mscorlib, Version=4.0.0.0, Culture=neutral, PublicKeyToken=b77a5c561934e089",
      "TransformType": 0,
      "ReplaceRecords": [],
      "ReplaceTransformObject": {
        "ModuleGuid": "00000000-0000-0000-0000-000000000000",
        "FieldGuid": "00000000-0000-0000-0000-000000000000"
      },
      "SplitTransformIndex": 0,
      "SplitTransformSeparator": "",
      "SplitSetNullIfNotFoundSeparator": false
    },
    {
      "Guid": "5351afc3-2939-46f7-9b56-1ab564d0f801",
      "IsEnabled": true,
      "IsCacheObject": false,
      "SourceName": "adWhenChanged",
      "SourceType": "System.DateTime, mscorlib, Version=4.0.0.0, Culture=neutral, PublicKeyToken=b77a5c561934e089",
      "TargetName": "adWhenChanged",
      "TargetType": "System.DateTime, mscorlib, Version=4.0.0.0, Culture=neutral, PublicKeyToken=b77a5c561934e089",
      "TransformType": 0,
      "ReplaceRecords": [],
      "ReplaceTransformObject": {
        "ModuleGuid": "00000000-0000-0000-0000-000000000000",
        "FieldGuid": "00000000-0000-0000-0000-000000000000"
      },
      "SplitTransformIndex": 0,
      "SplitTransformSeparator": "",
      "SplitSetNullIfNotFoundSeparator": false
    },
    {
      "Guid": "e823892f-d87a-4457-9d02-3fdbcb289080",
      "IsEnabled": true,
      "IsCacheObject": false,
      "SourceName": "groupIds",
      "SourceType": "System.String, mscorlib, Version=4.0.0.0, Culture=neutral, PublicKeyToken=b77a5c561934e089",
      "TargetName": "groupIds",
      "TargetType": "System.String, mscorlib, Version=4.0.0.0, Culture=neutral, PublicKeyToken=b77a5c561934e089",
      "TransformType": 0,
      "ReplaceRecords": [],
      "ReplaceTransformObject": {
        "ModuleGuid": "00000000-0000-0000-0000-000000000000",
        "FieldGuid": "00000000-0000-0000-0000-000000000000"
      },
      "SplitTransformIndex": 0,
      "SplitTransformSeparator": "",
      "SplitSetNullIfNotFoundSeparator": false
    }
  ],
  "UseDateSelector": false,
  "DateSelectorQuery": "where DATEDIFF(day, CAST('{D}' AS DATETIME), CreatedAtField) >= 0",
  "Route": "ImportUsers",
  "ExternalId": "System.Guid, mscorlib, Version=4.0.0.0, Culture=neutral, PublicKeyToken=b77a5c561934e089",
  "InternalId": "System.Int64, mscorlib, Version=4.0.0.0, Culture=neutral, PublicKeyToken=b77a5c561934e089",
  "IsResponseWithResult": true,
  "IsEnabled": false,
  "Caption": "Users"
}
